…
-   build nested data.frame
-   access elements of nested data.frame

``` r
# Nested data -------------------------------------------------------------

by_country <- gapminder  %>%
  group_by(continent, country) %>%
  nest()

by_country                  # show content of df
```

    ## # A tibble: 142 × 3
    ##    continent     country              data
    ##       <fctr>      <fctr>            <list>
    ## 1       Asia Afghanistan <tibble [12 × 5]>
    ## 2     Europe     Albania <tibble [12 × 5]>
    ## 3     Africa     Algeria <tibble [12 × 5]>
    ## 4     Africa      Angola <tibble [12 × 5]>
    ## 5   Americas   Argentina <tibble [12 × 5]>
    ## 6    Oceania   Australia <tibble [12 × 5]>
    ## 7     Europe     Austria <tibble [12 × 5]>
    ## 8       Asia     Bahrain <tibble [12 × 5]>
    ## 9       Asia  Bangladesh <tibble [12 × 5]>
    ## 10    Europe     Belgium <tibble [12 × 5]>
    ## # ... with 132 more rows
…
``` r
# Fit models --------------------------------------------------------------

country_model <- function(df){
  lm(lifeExp  ~  year1950, data=df)  # use year1950 because the absolute value is not important
}
models <- by_country %>%
  mutate(
    model = map(data, country_model)
  )
models
```

    ## # A tibble: 142 × 4
    ##    continent     country              data    model
    ##       <fctr>      <fctr>            <list>   <list>
    ## 1       Asia Afghanistan <tibble [12 × 5]> <S3: lm>
    ## 2     Europe     Albania <tibble [12 × 5]> <S3: lm>
    ## 3     Africa     Algeria <tibble [12 × 5]> <S3: lm>
    ## 4     Africa      Angola <tibble [12 × 5]> <S3: lm>
    ## 5   Americas   Argentina <tibble [12 × 5]> <S3: lm>
    ## 6    Oceania   Australia <tibble [12 × 5]> <S3: lm>
    ## 7     Europe     Austria <tibble [12 × 5]> <S3: lm>
    ## 8       Asia     Bahrain <tibble [12 × 5]> <S3: lm>
    ## 9       Asia  Bangladesh <tibble [12 × 5]> <S3: lm>
    ## 10    Europe     Belgium <tibble [12 × 5]> <S3: lm>
    ## # ... with 132 more rows
…
``` r
# Put it all together -----------------------------------------------------

by_country <- gapminder  %>%
  group_by(continent, country) %>%
  nest() %>%  
  mutate(
    model = map(data, country_model)
  )

by_country
```

    ## # A tibble: 142 × 4
    ##    continent     country              data    model
    ##       <fctr>      <fctr>            <list>   <list>
    ## 1       Asia Afghanistan <tibble [12 × 5]> <S3: lm>
    ## 2     Europe     Albania <tibble [12 × 5]> <S3: lm>
    ## 3     Africa     Algeria <tibble [12 × 5]> <S3: lm>
    ## 4     Africa      Angola <tibble [12 × 5]> <S3: lm>
    ## 5   Americas   Argentina <tibble [12 × 5]> <S3: lm>
    ## 6    Oceania   Australia <tibble [12 × 5]> <S3: lm>
    ## 7     Europe     Austria <tibble [12 × 5]> <S3: lm>
    ## 8       Asia     Bahrain <tibble [12 × 5]> <S3: lm>
    ## 9       Asia  Bangladesh <tibble [12 × 5]> <S3: lm>
    ## 10    Europe     Belgium <tibble [12 × 5]> <S3: lm>
    ## # ... with 132 more rows
Get the model data in a tidy form using the **broom** package
-------------------------------------------------------------

``` r
models <- models %>%
  mutate(
    glance  = map(model, broom::glance),        # Construct a single row summary "glance" of a model
    rsq     = glance %>% map_dbl("r.squared"),  # note the pipe within mutate(...)
    tidy    = map(model, broom::tidy),          # Tidy the result of a test into a summary data.frame
    augment = map(model, broom::augment)        # add columns to the original dataset such as predictions, residuals and cluster assignments
  ) 
models
```

    ## # A tibble: 142 × 8
    ##    continent     country              data    model                glance
    ##       <fctr>      <fctr>            <list>   <list>                <list>
    ## 1       Asia Afghanistan <tibble [12 × 5]> <S3: lm> <data.frame [1 × 11]>
    ## 2     Europe     Albania <tibble [12 × 5]> <S3: lm> <data.frame [1 × 11]>
    ## 3     Africa     Algeria <tibble [12 × 5]> <S3: lm> <data.frame [1 × 11]>
    ## 4     Africa      Angola <tibble [12 × 5]> <S3: lm> <data.frame [1 × 11]>
    ## 5   Americas   Argentina <tibble [12 × 5]> <S3: lm> <data.frame [1 × 11]>
    ## 6    Oceania   Australia <tibble [12 × 5]> <S3: lm> <data.frame [1 × 11]>
    ## 7     Europe     Austria <tibble [12 × 5]> <S3: lm> <data.frame [1 × 11]>
    ## 8       Asia     Bahrain <tibble [12 × 5]> <S3: lm> <data.frame [1 × 11]>
    ## 9       Asia  Bangladesh <tibble [12 × 5]> <S3: lm> <data.frame [1 × 11]>
    ## 10    Europe     Belgium <tibble [12 × 5]> <S3: lm> <data.frame [1 × 11]>
    ## # ... with 132 more rows, and 3 more variables: rsq <dbl>, tidy <list>,
    ## #   augment <list>
…
How much did the countries improve life expectancy over time
============================================================

``` r
library(plotly)
# Unnest data -------------------------------------------------------------

unnest(models, data)
```

    ## # A tibble: 1,704 × 8
    ##    continent     country       rsq  year lifeExp      pop gdpPercap
    ##       <fctr>      <fctr>     <dbl> <int>   <dbl>    <int>     <dbl>
    ## 1       Asia Afghanistan 0.9477123  1952  28.801  8425333  779.4453
    ## 2       Asia Afghanistan 0.9477123  1957  30.332  9240934  820.8530
    ## 3       Asia Afghanistan 0.9477123  1962  31.997 10267083  853.1007
    ## 4       Asia Afghanistan 0.9477123  1967  34.020 11537966  836.1971
    ## 5       Asia Afghanistan 0.9477123  1972  36.088 13079460  739.9811
    ## 6       Asia Afghanistan 0.9477123  1977  38.438 14880372  786.1134
    ## 7       Asia Afghanistan 0.9477123  1982  39.854 12881816  978.0114
    ## 8       Asia Afghanistan 0.9477123  1987  40.822 13867957  852.3959
    ## 9       Asia Afghanistan 0.9477123  1992  41.674 16317921  649.3414
    ## 10      Asia Afghanistan 0.9477123  1997  41.763 22227415  635.3414
    ## # ... with 1,694 more rows, and 1 more variables: year1950 <dbl>

``` r
unnest(models, glance, .drop = TRUE) 
```

    ## # A tibble: 142 × 14
    ##    continent     country       rsq r.squared adj.r.squared     sigma
    ##       <fctr>      <fctr>     <dbl>     <dbl>         <dbl>     <dbl>
    ## 1       Asia Afghanistan 0.9477123 0.9477123     0.9424835 1.2227880
    ## 2     Europe     Albania 0.9105778 0.9105778     0.9016355 1.9830615
    ## 3     Africa     Algeria 0.9851172 0.9851172     0.9836289 1.3230064
    ## 4     Africa      Angola 0.8878146 0.8878146     0.8765961 1.4070091
    ## 5   Americas   Argentina 0.9955681 0.9955681     0.9951249 0.2923072
    ## 6    Oceania   Australia 0.9796477 0.9796477     0.9776125 0.6206086
    ## 7     Europe     Austria 0.9921340 0.9921340     0.9913474 0.4074094
    ## 8       Asia     Bahrain 0.9667398 0.9667398     0.9634138 1.6395865
    ## 9       Asia  Bangladesh 0.9893609 0.9893609     0.9882970 0.9766908
    ## 10    Europe     Belgium 0.9945406 0.9945406     0.9939946 0.2929025
    ## # ... with 132 more rows, and 8 more variables: statistic <dbl>,
    ## #   p.value <dbl>, df <int>, logLik <dbl>, AIC <dbl>, BIC <dbl>,
    ## #   deviance <dbl>, df.residual <int>

``` r
unnest(models, tidy)
```

    ## # A tibble: 284 × 8
    ##    continent     country       rsq        term   estimate   std.error
    ##       <fctr>      <fctr>     <dbl>       <chr>      <dbl>       <dbl>
    ## 1       Asia Afghanistan 0.9477123 (Intercept) 29.3566375 0.698981278
    ## 2       Asia Afghanistan 0.9477123    year1950  0.2753287 0.020450934
    ## 3     Europe     Albania 0.9105778 (Intercept) 58.5597618 1.133575812
    ## 4     Europe     Albania 0.9105778    year1950  0.3346832 0.033166387
    ## 5     Africa     Algeria 0.9851172 (Intercept) 42.2364149 0.756269040
    ## 6     Africa     Algeria 0.9851172    year1950  0.5692797 0.022127070
    ## 7     Africa      Angola 0.8878146 (Intercept) 31.7079741 0.804287463
    ## 8     Africa      Angola 0.8878146    year1950  0.2093399 0.023532003
    ## 9   Americas   Argentina 0.9955681 (Intercept) 62.2250191 0.167091314
    ## 10  Americas   Argentina 0.9955681    year1950  0.2317084 0.004888791
    ## # ... with 274 more rows, and 2 more variables: statistic <dbl>,
    ## #   p.value <dbl>
…
preserve06cdb3471e934de6 \#\# where are the exeptions

``` r
unnest(models, augment) # using the unnest with one augment argument keeps the grouping variables and augment 
```

    ## # A tibble: 1,704 × 12
    ##    continent     country       rsq lifeExp year1950  .fitted   .se.fit
    ##       <fctr>      <fctr>     <dbl>   <dbl>    <dbl>    <dbl>     <dbl>
    ## 1       Asia Afghanistan 0.9477123  28.801        2 29.90729 0.6639995
    ## 2       Asia Afghanistan 0.9477123  30.332        7 31.28394 0.5799442
    ## 3       Asia Afghanistan 0.9477123  31.997       12 32.66058 0.5026799
    ## 4       Asia Afghanistan 0.9477123  34.020       17 34.03722 0.4358337
    ## 5       Asia Afghanistan 0.9477123  36.088       22 35.41387 0.3848726
    ## 6       Asia Afghanistan 0.9477123  38.438       27 36.79051 0.3566719
    ## 7       Asia Afghanistan 0.9477123  39.854       32 38.16716 0.3566719
    ## 8       Asia Afghanistan 0.9477123  40.822       37 39.54380 0.3848726
    ## 9       Asia Afghanistan 0.9477123  41.674       42 40.92044 0.4358337
    ## 10      Asia Afghanistan 0.9477123  41.763       47 42.29709 0.5026799
    ## # ... with 1,694 more rows, and 5 more variables: .resid <dbl>,
    ## #   .hat <dbl>, .sigma <dbl>, .cooksd <dbl>, .std.resid <dbl>
…
