…
need help?

-   cheat sheets
-   docs of ggplot
-   <http://docs.ggplot2.org>

Data wrangling
==============

``` r
library(nycflights13)
flights
```

    ## # A tibble: 336,776 × 19
    ##     year month   day dep_time sched_dep_time dep_delay arr_time
    ##    <int> <int> <int>    <int>          <int>     <dbl>    <int>
    ## 1   2013     1     1      517            515         2      830
    ## 2   2013     1     1      533            529         4      850
    ## 3   2013     1     1      542            540         2      923
    ## 4   2013     1     1      544            545        -1     1004
    ## 5   2013     1     1      554            600        -6      812
    ## 6   2013     1     1      554            558        -4      740
    ## 7   2013     1     1      555            600        -5      913
    ## 8   2013     1     1      557            600        -3      709
    ## 9   2013     1     1      557            600        -3      838
    ## 10  2013     1     1      558            600        -2      753
    ## # ... with 336,766 more rows, and 12 more variables: sched_arr_time <int>,
    ## #   arr_delay <dbl>, carrier <chr>, flight <int>, tailnum <chr>,
    ## #   origin <chr>, dest <chr>, air_time <dbl>, distance <dbl>, hour <dbl>,
    ## #   minute <dbl>, time_hour <dttm>

filter rows
-----------

filter all rows where month == 1 and day == 1, multiple filter conditions are separated by "," and are treated as logical "AND"

``` r
flights %>% filter(month == 1, day == 1)
```

    ## # A tibble: 842 × 19
    ##     year month   day dep_time sched_dep_time dep_delay arr_time
    ##    <int> <int> <int>    <int>          <int>     <dbl>    <int>
    ## 1   2013     1     1      517            515         2      830
    ## 2   2013     1     1      533            529         4      850
    ## 3   2013     1     1      542            540         2      923
    ## 4   2013     1     1      544            545        -1     1004
    ## 5   2013     1     1      554            600        -6      812
    ## 6   2013     1     1      554            558        -4      740
    ## 7   2013     1     1      555            600        -5      913
    ## 8   2013     1     1      557            600        -3      709
    ## 9   2013     1     1      557            600        -3      838
    ## 10  2013     1     1      558            600        -2      753
    ## # ... with 832 more rows, and 12 more variables: sched_arr_time <int>,
    ## #   arr_delay <dbl>, carrier <chr>, flight <int>, tailnum <chr>,
    ## #   origin <chr>, dest <chr>, air_time <dbl>, distance <dbl>, hour <dbl>,
    ## #   minute <dbl>, time_hour <dttm>
…
store all x-mas flights
-----------------------

note, if you wrap the expression in () then the result will be displayed even when the result is assigned to a variable.

The

``` r
(xmas_flights <- flights %>% filter( month == 12, day == 24))
```

    ## # A tibble: 761 × 19
    ##     year month   day dep_time sched_dep_time dep_delay arr_time
    ##    <int> <int> <int>    <int>          <int>     <dbl>    <int>
    ## 1   2013    12    24        9           2359        10      444
    ## 2   2013    12    24      458            500        -2      652
    ## 3   2013    12    24      513            515        -2      813
    ## 4   2013    12    24      543            540         3      844
    ## 5   2013    12    24      546            550        -4     1032
    ## 6   2013    12    24      555            600        -5      851
    ## 7   2013    12    24      556            600        -4      845
    ## 8   2013    12    24      557            600        -3      908
    ## 9   2013    12    24      558            600        -2      827
    ## 10  2013    12    24      558            600        -2      729
    ## # ... with 751 more rows, and 12 more variables: sched_arr_time <int>,
    ## #   arr_delay <dbl>, carrier <chr>, flight <int>, tailnum <chr>,
    ## #   origin <chr>, dest <chr>, air_time <dbl>, distance <dbl>, hour <dbl>,
    ## #   minute <dbl>, time_hour <dttm>

boolean operators work as well
------------------------------

``` r
flights %>% filter( month == 11 | month == 12)
```

    ## # A tibble: 55,403 × 19
    ##     year month   day dep_time sched_dep_time dep_delay arr_time
    ##    <int> <int> <int>    <int>          <int>     <dbl>    <int>
    ## 1   2013    11     1        5           2359         6      352
    ## 2   2013    11     1       35           2250       105      123
    ## 3   2013    11     1      455            500        -5      641
    ## 4   2013    11     1      539            545        -6      856
    ## 5   2013    11     1      542            545        -3      831
    ## 6   2013    11     1      549            600       -11      912
    ## 7   2013    11     1      550            600       -10      705
    ## 8   2013    11     1      554            600        -6      659
    ## 9   2013    11     1      554            600        -6      826
    ## 10  2013    11     1      554            600        -6      749
    ## # ... with 55,393 more rows, and 12 more variables: sched_arr_time <int>,
    ## #   arr_delay <dbl>, carrier <chr>, flight <int>, tailnum <chr>,
    ## #   origin <chr>, dest <chr>, air_time <dbl>, distance <dbl>, hour <dbl>,
    ## #   minute <dbl>, time_hour <dttm>

the following expressions give the same result

``` r
mpg %>% filter(cyl > 4, displ >2.8)
```

    ## # A tibble: 134 × 11
    ##    manufacturer              model displ  year   cyl      trans   drv
    ##           <chr>              <chr> <dbl> <int> <int>      <chr> <chr>
    ## 1          audi                 a4   3.1  2008     6   auto(av)     f
    ## 2          audi         a4 quattro   3.1  2008     6   auto(s6)     4
    ## 3          audi         a4 quattro   3.1  2008     6 manual(m6)     4
    ## 4          audi         a6 quattro   3.1  2008     6   auto(s6)     4
    ## 5          audi         a6 quattro   4.2  2008     8   auto(s6)     4
    ## 6     chevrolet c1500 suburban 2wd   5.3  2008     8   auto(l4)     r
    ## 7     chevrolet c1500 suburban 2wd   5.3  2008     8   auto(l4)     r
    ## 8     chevrolet c1500 suburban 2wd   5.3  2008     8   auto(l4)     r
    ## 9     chevrolet c1500 suburban 2wd   5.7  1999     8   auto(l4)     r
    ## 10    chevrolet c1500 suburban 2wd   6.0  2008     8   auto(l4)     r
    ## # ... with 124 more rows, and 4 more variables: cty <int>, hwy <int>,
    ## #   fl <chr>, class <chr>

``` r
mpg %>% filter(cyl > 4 & displ >2.8)
```

    ## # A tibble: 134 × 11
    ##    manufacturer              model displ  year   cyl      trans   drv
    ##           <chr>              <chr> <dbl> <int> <int>      <chr> <chr>
    ## 1          audi                 a4   3.1  2008     6   auto(av)     f
    ## 2          audi         a4 quattro   3.1  2008     6   auto(s6)     4
    ## 3          audi         a4 quattro   3.1  2008     6 manual(m6)     4
    ## 4          audi         a6 quattro   3.1  2008     6   auto(s6)     4
    ## 5          audi         a6 quattro   4.2  2008     8   auto(s6)     4
    ## 6     chevrolet c1500 suburban 2wd   5.3  2008     8   auto(l4)     r
    ## 7     chevrolet c1500 suburban 2wd   5.3  2008     8   auto(l4)     r
    ## 8     chevrolet c1500 suburban 2wd   5.3  2008     8   auto(l4)     r
    ## 9     chevrolet c1500 suburban 2wd   5.7  1999     8   auto(l4)     r
    ## 10    chevrolet c1500 suburban 2wd   6.0  2008     8   auto(l4)     r
    ## # ... with 124 more rows, and 4 more variables: cty <int>, hwy <int>,
    ## #   fl <chr>, class <chr>

Arrange rows with arrange()
---------------------------

``` r
flights %>% arrange(year, month, day)
```

    ## # A tibble: 336,776 × 19
    ##     year month   day dep_time sched_dep_time dep_delay arr_time
    ##    <int> <int> <int>    <int>          <int>     <dbl>    <int>
    ## 1   2013     1     1      517            515         2      830
    ## 2   2013     1     1      533            529         4      850
    ## 3   2013     1     1      542            540         2      923
    ## 4   2013     1     1      544            545        -1     1004
    ## 5   2013     1     1      554            600        -6      812
    ## 6   2013     1     1      554            558        -4      740
    ## 7   2013     1     1      555            600        -5      913
    ## 8   2013     1     1      557            600        -3      709
    ## 9   2013     1     1      557            600        -3      838
    ## 10  2013     1     1      558            600        -2      753
    ## # ... with 336,766 more rows, and 12 more variables: sched_arr_time <int>,
    ## #   arr_delay <dbl>, carrier <chr>, flight <int>, tailnum <chr>,
    ## #   origin <chr>, dest <chr>, air_time <dbl>, distance <dbl>, hour <dbl>,
    ## #   minute <dbl>, time_hour <dttm>

select columns with select()
----------------------------

also an easy way to bring columns in a specific order

``` r
flights %>% select(year, month, day)
```

    ## # A tibble: 336,776 × 3
    ##     year month   day
    ##    <int> <int> <int>
    ## 1   2013     1     1
    ## 2   2013     1     1
    ## 3   2013     1     1
    ## 4   2013     1     1
    ## 5   2013     1     1
    ## 6   2013     1     1
    ## 7   2013     1     1
    ## 8   2013     1     1
    ## 9   2013     1     1
    ## 10  2013     1     1
    ## # ... with 336,766 more rows

select all but a range of columns

``` r
flights %>% select(-(year:day))
```

    ## # A tibble: 336,776 × 16
    ##    dep_time sched_dep_time dep_delay arr_time sched_arr_time arr_delay
    ##       <int>          <int>     <dbl>    <int>          <int>     <dbl>
    ## 1       517            515         2      830            819        11
    ## 2       533            529         4      850            830        20
    ## 3       542            540         2      923            850        33
    ## 4       544            545        -1     1004           1022       -18
    ## 5       554            600        -6      812            837       -25
    ## 6       554            558        -4      740            728        12
    ## 7       555            600        -5      913            854        19
    ## 8       557            600        -3      709            723       -14
    ## 9       557            600        -3      838            846        -8
    ## 10      558            600        -2      753            745         8
    ## # ... with 336,766 more rows, and 10 more variables: carrier <chr>,
    ## #   flight <int>, tailnum <chr>, origin <chr>, dest <chr>, air_time <dbl>,
    ## #   distance <dbl>, hour <dbl>, minute <dbl>, time_hour <dttm>
…
``` r
flights %>% select(
  year:day, 
  ends_with("delay"), 
  distance, 
  air_time) %>% 
mutate(
  gain = arr_delay - dep_delay,
  speed = distance / air_time * 60,
  hours = air_time / 60,
  gain_per_hour = gain / hours) %>% 
  select(-c(month, day, speed))
```

    ## # A tibble: 336,776 × 8
    ##     year dep_delay arr_delay distance air_time  gain     hours
    ##    <int>     <dbl>     <dbl>    <dbl>    <dbl> <dbl>     <dbl>
    ## 1   2013         2        11     1400      227     9 3.7833333
    ## 2   2013         4        20     1416      227    16 3.7833333
    ## 3   2013         2        33     1089      160    31 2.6666667
    ## 4   2013        -1       -18     1576      183   -17 3.0500000
    ## 5   2013        -6       -25      762      116   -19 1.9333333
    ## 6   2013        -4        12      719      150    16 2.5000000
    ## 7   2013        -5        19     1065      158    24 2.6333333
    ## 8   2013        -3       -14      229       53   -11 0.8833333
    ## 9   2013        -3        -8      944      140    -5 2.3333333
    ## 10  2013        -2         8      733      138    10 2.3000000
    ## # ... with 336,766 more rows, and 1 more variables: gain_per_hour <dbl>
…
``` r
flights %>% select( 
  year:day, 
  ends_with("delay"), 
  distance, 
  air_time) %>% 
transmute(
  gain = arr_delay - dep_delay,
  speed = distance / air_time * 60,
  hours = air_time / 60,
  gain_per_hour = gain / hours) 
```

    ## # A tibble: 336,776 × 4
    ##     gain    speed     hours gain_per_hour
    ##    <dbl>    <dbl>     <dbl>         <dbl>
    ## 1      9 370.0441 3.7833333      2.378855
    ## 2     16 374.2731 3.7833333      4.229075
    ## 3     31 408.3750 2.6666667     11.625000
    ## 4    -17 516.7213 3.0500000     -5.573770
    ## 5    -19 394.1379 1.9333333     -9.827586
    ## 6     16 287.6000 2.5000000      6.400000
    ## 7     24 404.4304 2.6333333      9.113924
    ## 8    -11 259.2453 0.8833333    -12.452830
    ## 9     -5 404.5714 2.3333333     -2.142857
    ## 10    10 318.6957 2.3000000      4.347826
    ## # ... with 336,766 more rows
…
``` r
# na.rm a logical value indicating whether NA values should be stripped before the computation proceeds.

flights %>% summarise(mean_delay = mean(dep_delay, na.rm = TRUE)) %>% as.numeric()
```

    ## [1] 12.63907

``` r
by_day <- flights %>% group_by(year, month, day)
by_day %>% summarise(mean_delay = mean(dep_delay, na.rm = TRUE))
```

    ## Source: local data frame [365 x 4]
    ## Groups: year, month [?]
    ## 
    ##     year month   day mean_delay
    ##    <int> <int> <int>      <dbl>
    ## 1   2013     1     1  11.548926
    ## 2   2013     1     2  13.858824
    ## 3   2013     1     3  10.987832
    ## 4   2013     1     4   8.951595
    ## 5   2013     1     5   5.732218
    ## 6   2013     1     6   7.148014
    ## 7   2013     1     7   5.417204
    ## 8   2013     1     8   2.553073
    ## 9   2013     1     9   2.276477
    ## 10  2013     1    10   2.844995
    ## # ... with 355 more rows
…
``` r
 airports
```

    ## # A tibble: 1,458 × 8
    ##      faa                           name      lat        lon   alt    tz
    ##    <chr>                          <chr>    <dbl>      <dbl> <int> <dbl>
    ## 1    04G              Lansdowne Airport 41.13047  -80.61958  1044    -5
    ## 2    06A  Moton Field Municipal Airport 32.46057  -85.68003   264    -6
    ## 3    06C            Schaumburg Regional 41.98934  -88.10124   801    -6
    ## 4    06N                Randall Airport 41.43191  -74.39156   523    -5
    ## 5    09J          Jekyll Island Airport 31.07447  -81.42778    11    -5
    ## 6    0A9 Elizabethton Municipal Airport 36.37122  -82.17342  1593    -5
    ## 7    0G6        Williams County Airport 41.46731  -84.50678   730    -5
    ## 8    0G7  Finger Lakes Regional Airport 42.88356  -76.78123   492    -5
    ## 9    0P2   Shoestring Aviation Airfield 39.79482  -76.64719  1000    -5
    ## 10   0S9          Jefferson County Intl 48.05381 -122.81064   108    -8
    ## # ... with 1,448 more rows, and 2 more variables: dst <chr>, tzone <chr>

``` r
 planes
```

    ## # A tibble: 3,322 × 9
    ##    tailnum  year                    type     manufacturer     model
    ##      <chr> <int>                   <chr>            <chr>     <chr>
    ## 1   N10156  2004 Fixed wing multi engine          EMBRAER EMB-145XR
    ## 2   N102UW  1998 Fixed wing multi engine AIRBUS INDUSTRIE  A320-214
    ## 3   N103US  1999 Fixed wing multi engine AIRBUS INDUSTRIE  A320-214
    ## 4   N104UW  1999 Fixed wing multi engine AIRBUS INDUSTRIE  A320-214
    ## 5   N10575  2002 Fixed wing multi engine          EMBRAER EMB-145LR
    ## 6   N105UW  1999 Fixed wing multi engine AIRBUS INDUSTRIE  A320-214
    ## 7   N107US  1999 Fixed wing multi engine AIRBUS INDUSTRIE  A320-214
    ## 8   N108UW  1999 Fixed wing multi engine AIRBUS INDUSTRIE  A320-214
    ## 9   N109UW  1999 Fixed wing multi engine AIRBUS INDUSTRIE  A320-214
    ## 10  N110UW  1999 Fixed wing multi engine AIRBUS INDUSTRIE  A320-214
    ## # ... with 3,312 more rows, and 4 more variables: engines <int>,
    ## #   seats <int>, speed <int>, engine <chr>

``` r
 weather
```

    ## # A tibble: 26,130 × 15
    ##    origin  year month   day  hour  temp  dewp humid wind_dir wind_speed
    ##     <chr> <dbl> <dbl> <int> <int> <dbl> <dbl> <dbl>    <dbl>      <dbl>
    ## 1     EWR  2013     1     1     0 37.04 21.92 53.97      230   10.35702
    ## 2     EWR  2013     1     1     1 37.04 21.92 53.97      230   13.80936
    ## 3     EWR  2013     1     1     2 37.94 21.92 52.09      230   12.65858
    ## 4     EWR  2013     1     1     3 37.94 23.00 54.51      230   13.80936
    ## 5     EWR  2013     1     1     4 37.94 24.08 57.04      240   14.96014
    ## 6     EWR  2013     1     1     6 39.02 26.06 59.37      270   10.35702
    ## 7     EWR  2013     1     1     7 39.02 26.96 61.63      250    8.05546
    ## 8     EWR  2013     1     1     8 39.02 28.04 64.43      240   11.50780
    ## 9     EWR  2013     1     1     9 39.92 28.04 62.21      250   12.65858
    ## 10    EWR  2013     1     1    10 39.02 28.04 64.43      260   12.65858
    ## # ... with 26,120 more rows, and 5 more variables: wind_gust <dbl>,
    ## #   precip <dbl>, pressure <dbl>, visib <dbl>, time_hour <dttm>
…
lets find out which manufacturer has the highest delays
-------------------------------------------------------

first we need to join flights with planes

``` r
flight_planes <- left_join(flights, planes, by = "tailnum")

flight_planes %>% group_by(manufacturer) %>% summarise(delay_per_flight = sum(arr_delay, na.rm = TRUE)/ n(),number_of_flights = n()) %>% arrange(desc(delay_per_flight))
```

    ## # A tibble: 36 × 3
    ##              manufacturer delay_per_flight number_of_flights
    ##                     <chr>            <dbl>             <int>
    ## 1              AGUSTA SPA        29.687500                32
    ## 2                CANADAIR        15.601004              1594
    ## 3                 EMBRAER        13.384952             66068
    ## 4      AVIAT AIRCRAFT INC        11.611111                18
    ## 5          FRIEDEMANN JON        11.507937                63
    ## 6           BARKER JACK L        11.027778               252
    ## 7         LAMBERT RICHARD         8.907407                54
    ## 8                  CESSNA         8.164134               658
    ## 9      CIRRUS DESIGN CORP         8.109966               291
    ## 10 ROBINSON HELICOPTER CO         8.041958               286
    ## # ... with 26 more rows
…
